{
  "transactions": [
    {
      "id": "123132",
      "accountId": "dfds-54",
      "counterpartyAccount": "gdfgdf",
      "counterpartyName": "wewrew",
      "counterPartyLogoPath": "",
      "instructedAmount": "344",
      "instructedCurrency": "$",
      "transctionAmount": "34543",
      "transactionCurrency": "$",
      "transactionType": "credit",
      "description": "mock data"
    }
  ]
}